{
    "swagger": "2.0",
    "info": {
        "title": "Hospital Management System API",
        "contact": {
            "name": "Calvin Aditya Jonathan",
            "email": "13513077@std.stei.itb.ac.id"
        },
        "version": "1.0"
    },
    "host": "hospital.dev",
    "basePath": "",
    "schemes": [
        "http"
    ],
    "paths": {
        "/api/layanan/{id}": {
            "get": {
                "tags": [
                    "layanan"
                ],
                "description": "Mengembalikan daftar layanan",
                "operationId": "api.layanan.index",
                "produces": [
                    "application/json"
                ],
                "parameters": [
                    {
                        "name": "id",
                        "in": "path",
                        "description": "ID layanan yang ingin didapat",
                        "required": false,
                        "type": "integer",
                        "format": "int32"
                    }
                ],
                "responses": {
                    "200": {
                        "description": "Daftar layanan"
                    },
                    "404": {
                        "description": "Not found"
                    }
                }
            },
            "post": {
                "tags": [
                    "layanan"
                ],
                "description": "Mengupdate layanan",
                "operationId": "api.layanan.update",
                "produces": [
                    "application/json"
                ],
                "parameters": [
                    {
                        "name": "id",
                        "in": "path",
                        "description": "ID layanan yang ingin diupdate",
                        "required": true,
                        "type": "integer",
                        "format": "int32"
                    }
                ],
                "responses": {
                    "200": {
                        "description": "Layanan berhasil dihapus"
                    },
                    "404": {
                        "description": "Not found"
                    }
                }
            },
            "delete": {
                "tags": [
                    "layanan"
                ],
                "description": "Menghapus layanan",
                "operationId": "api.layanan.destroy",
                "produces": [
                    "application/json"
                ],
                "parameters": [
                    {
                        "name": "id",
                        "in": "path",
                        "description": "ID layanan yang ingin dihapus",
                        "required": true,
                        "type": "integer",
                        "format": "int32"
                    }
                ],
                "responses": {
                    "200": {
                        "description": "Layanan berhasil dihapus"
                    },
                    "404": {
                        "description": "Not found"
                    }
                }
            }
        },
        "/api/layanan": {
            "post": {
                "tags": [
                    "layanan"
                ],
                "description": "Membuat layanan baru",
                "operationId": "api.layanan.store",
                "consumes": [
                    "application/json",
                    "application/xml"
                ],
                "produces": [
                    "string"
                ],
                "responses": {
                    "200": {
                        "description": "Layanan baru telah dibuat"
                    },
                    "404": {
                        "description": "Not found"
                    }
                }
            }
        }
    },
    "definitions": {
        "Error": {
            "required": [
                "code",
                "message"
            ],
            "properties": {
                "code": {
                    "description": "Class ApiController",
                    "type": "integer",
                    "format": "int32"
                },
                "message": {
                    "description": "Class ApiController",
                    "type": "string"
                }
            }
        }
    }
}